{
  "users": [
    { "userId": 1, "user": "akhil", "pass": "ak", "_id": "1Inrx7MHu3yGQdwW" },
    {
      "userId": 1,
      "user": "srinu",
      "pass": "srimusham",
      "_id": "BzVlJf47cE0J3oog"
    }
  ]
}
